%YAML 1.1
%TAG !u! tag:unity3d.com,2011:
--- !u!114 &11400000
MonoBehaviour:
  m_ObjectHideFlags: 0
  m_CorrespondingSourceObject: {fileID: 0}
  m_PrefabInstance: {fileID: 0}
  m_PrefabAsset: {fileID: 0}
  m_GameObject: {fileID: 0}
  m_Enabled: 1
  m_EditorHideFlags: 0
  m_Script: {fileID: 11500000, guid: 17ca378b8b9bb074c9987b0342732b1e, type: 3}
  m_Name: Frost Wave
  m_EditorClassIdentifier: 
  icon: {fileID: 21300000, guid: e8021490211559e4883af5a965aede11, type: 3}
  active: 1
  name: 
  cooldowntime: 0
  activetime: 0
  opisanie: 
  fireballpref: {fileID: 4627098607694748054, guid: b586b09a669ca3d4bb375b3cd1feb585, type: 3}
  destroyFX: {fileID: 0}
  ManaCost: 10
