%YAML 1.1
%TAG !u! tag:unity3d.com,2011:
--- !u!114 &11400000
MonoBehaviour:
  m_ObjectHideFlags: 0
  m_CorrespondingSourceObject: {fileID: 0}
  m_PrefabInstance: {fileID: 0}
  m_PrefabAsset: {fileID: 0}
  m_GameObject: {fileID: 0}
  m_Enabled: 1
  m_EditorHideFlags: 0
  m_Script: {fileID: 11500000, guid: dff4f229208b7114b8fa231433b01f38, type: 3}
  m_Name: SimpleRandomwalkParametrs_BigDungeon 1
  m_EditorClassIdentifier: 
  iteration: 100
  walkLenghts: 100
  startRandomGEN: 1
